Untitled
…
nobel_winners %>% 
  group_by(full_name) %>% 
  mutate(prizes = n(),
         distinct_prizes = n_distinct(category)
         ) %>% 
  arrange(desc(prizes), full_name)

## # A tibble: 911 x 22
## # Groups:   full_name [904]
##    prize_year category prize motivation prize_share laureate_id laureate_type
##         <dbl> <chr>    <chr> <chr>      <chr>             <dbl> <chr>        
##  1       1917 Peace    The ~  <NA>      1/1                 482 Organization 
##  2       1944 Peace    The ~  <NA>      1/1                 482 Organization 
##  3       1963 Peace    The ~  <NA>      1/2                 482 Organization 
##  4       1958 Chemist~ The ~ "\"for hi~ 1/1                 222 Individual   
##  5       1980 Chemist~ The ~ "\"for th~ 1/4                 222 Individual   
##  6       1956 Physics  The ~ "\"for th~ 1/3                  66 Individual   
##  7       1972 Physics  The ~ "\"for th~ 1/3                  66 Individual   
##  8       1954 Chemist~ The ~ "\"for hi~ 1/1                 217 Individual   
##  9       1962 Peace    The ~  <NA>      1/1                 217 Individual   
## 10       1903 Physics  The ~ "\"in rec~ 1/4                   6 Individual   
## # ... with 901 more rows, and 15 more variables: full_name <chr>,
## #   birth_date <date>, birth_city <chr>, birth_country <chr>, gender <chr>,
## #   organization_name <chr>, organization_city <chr>,
## #   organization_country <chr>, death_date <date>, death_city <chr>,
## #   death_country <chr>, decade <dbl>, age <dbl>, prizes <int>,
## #   distinct_prizes <int>
…
